{
  "html": {
    "headings": {
      "content": "Ich bin Content"
    },
    "paragraphs": {
      "content": "Ich bin auch content"
    },
    "links": {
      "content": "Hier stehen infos zu HTML links"
    },
    "images": {
      "content": "Was können Bilder machen"
    },
    "tables": {
      "content": "Ich bin eine Tabelle"
    }
  },
  "css": {
    "selectors": {
      "content": "Ich selector content"
    },
    "colors": {
      "content": "Ich bin Farben"
    },
    "boxes": {
      "content": "Jee Boxes"
    },
    "display": {
      "content": "Jee Display"
    },
    "floalt": {
      "content": "Ich bin der Content von floalt"
    }
  },
  "javascript": {
    "functions": {
      "content": "Was sind funktionen in Javascript"
    },
    "objects": {
      "content": "Was sind objekte in JS"
    },
    "scope": {
      "content": "Was macht Scope"
    },
    "events": {
      "content": "Events sind super"
    },
    "hoisting": {
      "content": "I like you. Hosting"
    },
    "strict_mode": {
      "content": "Ich stict mode"
    },
    "JSON": {
      "content": "Was macht json"
    }
  },
  "other": {
    "one other": {
      "content": "empty"
    }
  }
}